PWD /home/peterj/Projects/JMM_talk/notes
INPUT /usr/share/texmf-dist/web2c/texmf.cnf
INPUT /var/lib/texmf/web2c/xetex/xelatex.fmt
INPUT /home/peterj/Projects/JMM_talk/notes/main.tex
OUTPUT /home/peterj/Projects/JMM_talk/notes/main.log
INPUT /usr/share/texmf-dist/tex/latex/base/article.cls
INPUT /usr/share/texmf-dist/tex/latex/base/article.cls
INPUT /usr/share/texmf-dist/tex/latex/base/article.cls
INPUT /usr/share/texmf-dist/tex/latex/base/article.cls
INPUT /usr/share/texmf-dist/tex/latex/base/article.cls
INPUT /usr/share/texmf-dist/tex/latex/base/article.cls
INPUT /usr/share/texmf-dist/tex/latex/base/article.cls
INPUT /usr/share/texmf-dist/tex/latex/base/article.cls
INPUT /usr/share/texmf-dist/tex/latex/base/article.cls
INPUT /usr/share/texmf-dist/tex/latex/base/article.cls
INPUT /usr/share/texmf-dist/tex/latex/base/size10.clo
INPUT /usr/share/texmf-dist/tex/latex/base/size10.clo
INPUT /usr/share/texmf-dist/tex/latex/base/size10.clo
INPUT /usr/share/texmf-dist/tex/latex/base/size10.clo
INPUT /usr/share/texmf-dist/tex/latex/l3backend/l3backend-xetex.def
INPUT /usr/share/texmf-dist/tex/latex/l3backend/l3backend-xetex.def
INPUT /usr/share/texmf-dist/tex/latex/l3backend/l3backend-xetex.def
INPUT /usr/share/texmf-dist/tex/latex/l3backend/l3backend-xetex.def
INPUT /usr/share/texmf-dist/tex/latex/l3backend/l3backend-xetex.def
INPUT /usr/share/texmf-dist/tex/latex/l3backend/l3backend-xetex.def
INPUT /usr/share/texmf-dist/tex/latex/l3backend/l3backend-xetex.def
INPUT /usr/share/texmf-dist/tex/latex/l3backend/l3backend-xetex.def
INPUT /usr/share/texmf-dist/tex/latex/l3backend/l3backend-xetex.def
INPUT /usr/share/texmf-dist/tex/latex/l3backend/l3backend-xetex.def
INPUT /home/peterj/Projects/JMM_talk/notes/main.aux
INPUT /home/peterj/Projects/JMM_talk/notes/main.aux
INPUT /home/peterj/Projects/JMM_talk/notes/main.aux
OUTPUT /home/peterj/Projects/JMM_talk/notes/main.aux
INPUT /usr/share/texmf-dist/tex/latex/base/ts1cmr.fd
INPUT /usr/share/texmf-dist/tex/latex/base/ts1cmr.fd
INPUT /usr/share/texmf-dist/tex/latex/base/ts1cmr.fd
INPUT /usr/share/texmf-dist/tex/latex/base/ts1cmr.fd
OUTPUT /home/peterj/Projects/JMM_talk/notes/main.xdv
INPUT /home/peterj/Projects/JMM_talk/notes/main.aux
